[gd_scene load_steps=13 format=2]

[ext_resource path="res://levels/Level.gd" type="Script" id=1]
[ext_resource path="res://levels/Level07.tscn" type="PackedScene" id=2]
[ext_resource path="res://images/sprites.png" type="Texture" id=3]
[ext_resource path="res://objects/Player.tscn" type="PackedScene" id=4]
[ext_resource path="res://objects/Block1.tscn" type="PackedScene" id=5]
[ext_resource path="res://objects/Block2.tscn" type="PackedScene" id=6]
[ext_resource path="res://objects/Block3.tscn" type="PackedScene" id=7]
[ext_resource path="res://sfx/slide.wav" type="AudioStream" id=8]
[ext_resource path="res://sfx/step.wav" type="AudioStream" id=9]

[sub_resource type="ConvexPolygonShape2D" id=1]
points = PoolVector2Array( 0, 0, 16, 0, 16, 16, 0, 16 )

[sub_resource type="ConvexPolygonShape2D" id=2]
points = PoolVector2Array( 0, 0, 16, 0, 16, 16, 0, 16 )

[sub_resource type="TileSet" id=3]
0/name = "right"
0/texture = ExtResource( 3 )
0/tex_offset = Vector2( 0, 0 )
0/modulate = Color( 1, 1, 1, 1 )
0/region = Rect2( 0, 32, 16, 16 )
0/tile_mode = 0
0/occluder_offset = Vector2( 0, 0 )
0/navigation_offset = Vector2( 0, 0 )
0/shapes = [  ]
0/z_index = 0
1/name = "up"
1/texture = ExtResource( 3 )
1/tex_offset = Vector2( 0, 0 )
1/modulate = Color( 1, 1, 1, 1 )
1/region = Rect2( 16, 32, 16, 16 )
1/tile_mode = 0
1/occluder_offset = Vector2( 0, 0 )
1/navigation_offset = Vector2( 0, 0 )
1/shapes = [  ]
1/z_index = 0
2/name = "down"
2/texture = ExtResource( 3 )
2/tex_offset = Vector2( 0, 0 )
2/modulate = Color( 1, 1, 1, 1 )
2/region = Rect2( 32, 32, 16, 16 )
2/tile_mode = 0
2/occluder_offset = Vector2( 0, 0 )
2/navigation_offset = Vector2( 0, 0 )
2/shapes = [  ]
2/z_index = 0
3/name = "down"
3/texture = ExtResource( 3 )
3/tex_offset = Vector2( 0, 0 )
3/modulate = Color( 1, 1, 1, 1 )
3/region = Rect2( 48, 32, 16, 16 )
3/tile_mode = 0
3/occluder_offset = Vector2( 0, 0 )
3/navigation_offset = Vector2( 0, 0 )
3/shapes = [  ]
3/z_index = 0
4/name = "jump"
4/texture = ExtResource( 3 )
4/tex_offset = Vector2( 0, 0 )
4/modulate = Color( 1, 1, 1, 1 )
4/region = Rect2( 64, 32, 16, 16 )
4/tile_mode = 0
4/occluder_offset = Vector2( 0, 0 )
4/navigation_offset = Vector2( 0, 0 )
4/shapes = [  ]
4/z_index = 0
5/name = "wall"
5/texture = ExtResource( 3 )
5/tex_offset = Vector2( 0, 0 )
5/modulate = Color( 1, 1, 1, 1 )
5/region = Rect2( 80, 32, 16, 16 )
5/tile_mode = 0
5/occluder_offset = Vector2( 0, 0 )
5/navigation_offset = Vector2( 0, 0 )
5/shapes = [ {
"autotile_coord": Vector2( 0, 0 ),
"one_way": false,
"one_way_margin": 1.0,
"shape": SubResource( 1 ),
"shape_transform": Transform2D( 1, 0, 0, 1, 0, 0 )
} ]
5/z_index = 0
6/name = "button"
6/texture = ExtResource( 3 )
6/tex_offset = Vector2( 0, 0 )
6/modulate = Color( 1, 1, 1, 1 )
6/region = Rect2( 0, 48, 16, 16 )
6/tile_mode = 0
6/occluder_offset = Vector2( 0, 0 )
6/navigation_offset = Vector2( 0, 0 )
6/shapes = [  ]
6/z_index = 0
7/name = "pillar"
7/texture = ExtResource( 3 )
7/tex_offset = Vector2( 0, 0 )
7/modulate = Color( 1, 1, 1, 1 )
7/region = Rect2( 16, 48, 16, 16 )
7/tile_mode = 0
7/occluder_offset = Vector2( 0, 0 )
7/navigation_offset = Vector2( 0, 0 )
7/shapes = [ {
"autotile_coord": Vector2( 0, 0 ),
"one_way": false,
"one_way_margin": 1.0,
"shape": SubResource( 2 ),
"shape_transform": Transform2D( 1, 0, 0, 1, 0, 0 )
} ]
7/z_index = 0
8/name = "red"
8/texture = ExtResource( 3 )
8/tex_offset = Vector2( 0, 0 )
8/modulate = Color( 1, 1, 1, 1 )
8/region = Rect2( 32, 48, 16, 16 )
8/tile_mode = 0
8/occluder_offset = Vector2( 0, 0 )
8/navigation_offset = Vector2( 0, 0 )
8/shapes = [  ]
8/z_index = 0
9/name = "green"
9/texture = ExtResource( 3 )
9/tex_offset = Vector2( 0, 0 )
9/modulate = Color( 1, 1, 1, 1 )
9/region = Rect2( 48, 48, 16, 16 )
9/tile_mode = 0
9/occluder_offset = Vector2( 0, 0 )
9/navigation_offset = Vector2( 0, 0 )
9/shapes = [  ]
9/z_index = 0
10/name = "empty"
10/texture = ExtResource( 3 )
10/tex_offset = Vector2( 0, 0 )
10/modulate = Color( 1, 1, 1, 1 )
10/region = Rect2( 64, 48, 16, 16 )
10/tile_mode = 0
10/occluder_offset = Vector2( 0, 0 )
10/navigation_offset = Vector2( 0, 0 )
10/shapes = [  ]
10/z_index = 0

[node name="LevelOne" type="Node2D"]
script = ExtResource( 1 )
next_level = ExtResource( 2 )
buttons = 2

[node name="TileMap" type="TileMap" parent="."]
tile_set = SubResource( 3 )
cell_size = Vector2( 16, 16 )
format = 1
tile_data = PoolIntArray( 0, 5, 0, 1, 5, 0, 2, 5, 0, 3, 5, 0, 4, 5, 0, 5, 5, 0, 6, 5, 0, 7, 5, 0, 8, 5, 0, 9, 5, 0, 10, 5, 0, 11, 5, 0, 12, 5, 0, 13, 5, 0, 14, 5, 0, 15, 5, 0, 65536, 5, 0, 65537, 9, 0, 65538, 9, 0, 65539, 9, 0, 65540, 9, 0, 65541, 9, 0, 65542, 9, 0, 65543, 9, 0, 65544, 9, 0, 65545, 9, 0, 65546, 9, 0, 65547, 9, 0, 65548, 9, 0, 65549, 9, 0, 65550, 9, 0, 65551, 5, 0, 131072, 5, 0, 131073, 9, 0, 131074, 9, 0, 131075, 9, 0, 131076, 9, 0, 131077, 9, 0, 131078, 9, 0, 131079, 9, 0, 131080, 9, 0, 131081, 9, 0, 131082, 9, 0, 131083, 9, 0, 131084, 9, 0, 131085, 9, 0, 131086, 9, 0, 131087, 5, 0, 196608, 5, 0, 196609, 9, 0, 196610, 9, 0, 196611, 9, 0, 196612, 9, 0, 196613, 9, 0, 196614, 9, 0, 196615, 9, 0, 196616, 9, 0, 196617, 9, 0, 196618, 9, 0, 196619, 9, 0, 196620, 9, 0, 196621, 9, 0, 196622, 9, 0, 196623, 5, 0, 262144, 5, 0, 262145, 9, 0, 262146, 9, 0, 262147, 9, 0, 262148, 9, 0, 262149, 9, 0, 262150, 9, 0, 262151, 9, 0, 262152, 9, 0, 262153, 9, 0, 262154, 9, 0, 262155, 9, 0, 262156, 9, 0, 262157, 9, 0, 262158, 9, 0, 262159, 5, 0, 327680, 5, 0, 327681, 9, 0, 327682, 9, 0, 327683, 9, 0, 327684, 9, 0, 327685, 5, 0, 327686, 5, 0, 327687, 5, 0, 327688, 5, 0, 327689, 5, 0, 327690, 5, 0, 327691, 9, 0, 327692, 9, 0, 327693, 9, 0, 327694, 9, 0, 327695, 5, 0, 393216, 5, 0, 393217, 9, 0, 393218, 9, 0, 393219, 9, 0, 393220, 9, 0, 393221, 10, 0, 393222, 10, 0, 393223, 10, 0, 393224, 10, 0, 393225, 10, 0, 393226, 10, 0, 393227, 9, 0, 393228, 9, 0, 393229, 9, 0, 393230, 9, 0, 393231, 5, 0, 458752, 5, 0, 458753, 9, 0, 458754, 9, 0, 458755, 9, 0, 458756, 9, 0, 458757, 10, 0, 458758, 10, 0, 458759, 3, 0, 458760, 6, 0, 458761, 10, 0, 458762, 10, 0, 458763, 9, 0, 458764, 9, 0, 458765, 9, 0, 458766, 9, 0, 458767, 5, 0, 524288, 5, 0, 524289, 9, 0, 524290, 9, 0, 524291, 9, 0, 524292, 9, 0, 524293, 10, 0, 524294, 10, 0, 524295, 10, 0, 524296, 10, 0, 524297, 10, 0, 524298, 10, 0, 524299, 9, 0, 524300, 9, 0, 524301, 9, 0, 524302, 9, 0, 524303, 5, 0, 589824, 5, 0, 589825, 9, 0, 589826, 9, 0, 589827, 9, 0, 589828, 9, 0, 589829, 10, 0, 589830, 10, 0, 589831, 10, 0, 589832, 6, 0, 589833, 10, 0, 589834, 10, 0, 589835, 9, 0, 589836, 9, 0, 589837, 9, 0, 589838, 9, 0, 589839, 5, 0, 655360, 5, 0, 655361, 9, 0, 655362, 9, 0, 655363, 9, 0, 655364, 9, 0, 655365, 10, 0, 655366, 10, 0, 655367, 10, 0, 655368, 10, 0, 655369, 10, 0, 655370, 10, 0, 655371, 9, 0, 655372, 9, 0, 655373, 9, 0, 655374, 9, 0, 655375, 5, 0, 720896, 5, 0, 720897, 9, 0, 720898, 9, 0, 720899, 9, 0, 720900, 9, 0, 720901, 5, 0, 720902, 5, 0, 720903, 5, 0, 720904, 5, 0, 720905, 5, 0, 720906, 5, 0, 720907, 9, 0, 720908, 9, 0, 720909, 9, 0, 720910, 9, 0, 720911, 5, 0, 786432, 5, 0, 786433, 9, 0, 786434, 9, 0, 786435, 9, 0, 786436, 9, 0, 786437, 9, 0, 786438, 9, 0, 786439, 9, 0, 786440, 9, 0, 786441, 9, 0, 786442, 9, 0, 786443, 9, 0, 786444, 9, 0, 786445, 9, 0, 786446, 9, 0, 786447, 5, 0, 851968, 5, 0, 851969, 9, 0, 851970, 9, 0, 851971, 9, 0, 851972, 9, 0, 851973, 9, 0, 851974, 9, 0, 851975, 9, 0, 851976, 9, 0, 851977, 9, 0, 851978, 9, 0, 851979, 9, 0, 851980, 9, 0, 851981, 9, 0, 851982, 9, 0, 851983, 5, 0, 917504, 5, 0, 917505, 9, 0, 917506, 9, 0, 917507, 9, 0, 917508, 9, 0, 917509, 9, 0, 917510, 9, 0, 917511, 9, 0, 917512, 9, 0, 917513, 9, 0, 917514, 9, 0, 917515, 9, 0, 917516, 9, 0, 917517, 9, 0, 917518, 9, 0, 917519, 5, 0, 983040, 5, 0, 983041, 5, 0, 983042, 5, 0, 983043, 5, 0, 983044, 5, 0, 983045, 5, 0, 983046, 5, 0, 983047, 5, 0, 983048, 5, 0, 983049, 5, 0, 983050, 5, 0, 983051, 5, 0, 983052, 5, 0, 983053, 5, 0, 983054, 5, 0, 983055, 5, 0 )

[node name="Player" parent="." instance=ExtResource( 4 )]
position = Vector2( 168, 216 )

[node name="Blocks" type="Node2D" parent="."]

[node name="BlockOne" parent="Blocks" instance=ExtResource( 5 )]
position = Vector2( 56, 184 )

[node name="BlockTwo" parent="Blocks" instance=ExtResource( 6 )]
position = Vector2( 88, 216 )

[node name="BlockThree" parent="Blocks" instance=ExtResource( 7 )]
position = Vector2( 56, 88 )

[node name="Camera2D" type="Camera2D" parent="."]
anchor_mode = 0
zoom = Vector2( 0.5, 0.5 )

[node name="Slide" type="AudioStreamPlayer" parent="."]
stream = ExtResource( 8 )

[node name="Step" type="AudioStreamPlayer" parent="."]
stream = ExtResource( 9 )
